﻿C:\Users\saurabh chandra\source\repos\object_tracking_using_opencv\object_tracking_using_opencv\object_tracking_using_opencv.vcxproj(70,5): warning MSB4011: "C:\Users\saurabh chandra\Desktop\opencv\opencv_debug.props" cannot be imported again. It was already imported at "C:\Users\saurabh chandra\AppData\Local\Microsoft\MSBuild\v4.0\Microsoft.Cpp.x64.user.props (4,5)". This is most likely a build authoring error. This subsequent import will be ignored. 
  object_tracking_using_opencv.cpp
c:\users\saurabh chandra\source\repos\object_tracking_using_opencv\object_tracking_using_opencv\object_tracking_using_opencv.cpp(112): warning C4244: 'return': conversion from 'double' to 'int', possible loss of data
  object_tracking_using_opencv.vcxproj -> C:\Users\saurabh chandra\source\repos\object_tracking_using_opencv\x64\Debug\object_tracking_using_opencv.exe
